<?xml version="1.0" encoding="UTF-8" standalone="no"?>
<!-- Created with Inkscape (http://www.inkscape.org/) -->

<svg
   xmlns:dc="http://purl.org/dc/elements/1.1/"
   xmlns:cc="http://creativecommons.org/ns#"
   xmlns:rdf="http://www.w3.org/1999/02/22-rdf-syntax-ns#"
   xmlns:svg="http://www.w3.org/2000/svg"
   xmlns="http://www.w3.org/2000/svg"
   xmlns:sodipodi="http://sodipodi.sourceforge.net/DTD/sodipodi-0.dtd"
   xmlns:inkscape="http://www.inkscape.org/namespaces/inkscape"
   width="512"
   height="512"
   viewBox="0 0 479.99999 480.00001"
   id="svg2"
   version="1.1"
   inkscape:version="0.92.3 (2405546, 2018-03-11)"
   sodipodi:docname="icon.svg">
  <defs
     id="defs4" />
  <sodipodi:namedview
     id="base"
     pagecolor="#ffffff"
     bordercolor="#666666"
     borderopacity="1.0"
     inkscape:pageopacity="0"
     inkscape:pageshadow="2"
     inkscape:zoom="1.5917969"
     inkscape:cx="256"
     inkscape:cy="256"
     inkscape:document-units="px"
     inkscape:current-layer="layer1"
     showgrid="false"
     inkscape:window-width="1920"
     inkscape:window-height="1002"
     inkscape:window-x="0"
     inkscape:window-y="25"
     inkscape:window-maximized="1"
     inkscape:snap-global="false"
     units="px" />
  <metadata
     id="metadata7">
    <rdf:RDF>
      <cc:Work
         rdf:about="">
        <dc:format>image/svg+xml</dc:format>
        <dc:type
           rdf:resource="http://purl.org/dc/dcmitype/StillImage" />
        <dc:title></dc:title>
      </cc:Work>
    </rdf:RDF>
  </metadata>
  <g
     inkscape:label="Layer 1"
     inkscape:groupmode="layer"
     id="layer1"
     transform="translate(0,-572.36215)">
    <g
       id="g835"
       transform="matrix(1.2562466,0,0,1.2562466,-188.01156,176.07916)">
      <path
         inkscape:connector-curvature="0"
         id="path12"
         d="m 322.1922,585.68316 c -2.89178,-2.47525 -6.12978,-6.18673 -7.19556,-8.24771 -1.9283,-3.72893 -1.90979,-3.77407 3.78278,-9.2285 3.14631,-3.01471 5.72056,-5.96761 5.72056,-6.56202 0,-2.14346 -14.87318,-15.21131 -17.31276,-15.21131 -1.37409,0 -6.90022,1.76492 -12.28029,3.92205 -19.06088,7.64244 -19.2775,8.09637 10.227,-21.43101 15.11715,-15.12887 27.6565,-26.9947 27.86522,-26.36851 0.20873,0.62618 -1.6182,6.31123 -4.05983,12.63343 -2.44164,6.3222 -4.43934,12.33091 -4.43934,13.35268 0,2.01464 14.67059,17.89136 16.53217,17.89136 2.1077,0 15.96783,-15.56586 15.96783,-17.93295 0,-1.29036 -1.99789,-7.6803 -4.43974,-14.19986 -2.44186,-6.51955 -4.26879,-12.36662 -4.05984,-12.99345 0.20895,-0.62685 12.7537,11.26687 27.87724,26.4305 l 27.49734,27.57022 -13.89599,-4.92792 c -16.2064,-5.74728 -17.11636,-5.59048 -27.24705,4.69487 l -5.94534,6.03609 6.35608,5.47375 c 3.49584,3.01056 6.35635,6.09247 6.35669,6.8487 10e-4,2.67032 -7.32018,11.4354 -11.93338,14.28651 l -4.67304,2.88809 -5.68965,-6.02187 -5.68963,-6.02187 -5.06935,5.81977 c -2.78814,3.20087 -5.95247,5.81518 -7.03184,5.8096 -1.07938,-0.005 -4.3285,-2.03539 -7.22028,-4.51064 z"
         style="fill:#000000" />
      <path
         inkscape:connector-curvature="0"
         style="fill:#ffffff;fill-opacity:1;stroke-width:1.02481139"
         d="m 252.24695,556.87724 c -7.48063,-1.82342 -18.15873,-8.0226 -27.30526,-15.85207 -16.68151,-14.27948 -23.14045,-26.66828 -24.25302,-46.5193 -0.7806,-13.92772 0.80091,-21.82767 6.98851,-34.90889 14.28375,-30.19738 52.896,-45.29739 83.94545,-32.82837 13.88554,5.57624 30.98264,22.81715 39.09211,39.42091 2.35978,4.83153 3.44359,9.50569 3.88742,16.76544 l 0.61541,10.06619 -32.50879,32.52754 -32.50879,32.52755 -7.055,-0.13112 c -3.88024,-0.0721 -8.78436,-0.55267 -10.89804,-1.06788 z"
         id="path822" />
      <path
         inkscape:connector-curvature="0"
         id="path10"
         d="m 252.62498,555.26364 c -7.29952,-1.77927 -17.7191,-7.82836 -26.64418,-15.46828 -16.27764,-13.93376 -22.58021,-26.02262 -23.66584,-45.39303 -0.7617,-13.59052 0.78152,-21.2992 6.81931,-34.06372 13.93793,-29.46628 51.61535,-44.20071 81.91307,-32.03357 13.54936,5.44124 30.23253,22.26473 38.14566,38.4665 2.30265,4.71456 3.36022,9.27555 3.79331,16.35954 l 0.60051,9.82248 -31.72173,31.74002 -31.72173,31.74004 -6.88419,-0.12795 c -3.7863,-0.0704 -8.57169,-0.53929 -10.63419,-1.04203 z"
         style="fill:#d40606;fill-opacity:1" />
      <path
         id="path828"
         d="m 429.16631,556.87724 c 7.48063,-1.82342 18.15873,-8.0226 27.30526,-15.85207 16.68151,-14.27948 23.14045,-26.66828 24.25302,-46.5193 0.7806,-13.92772 -0.80091,-21.82767 -6.98851,-34.90889 -14.28375,-30.19738 -52.896,-45.29739 -83.94545,-32.82837 -13.88554,5.57624 -30.98264,22.81715 -39.09211,39.42091 -2.35978,4.83153 -3.44359,9.50569 -3.88742,16.76544 l -0.61541,10.06619 32.50879,32.52754 32.50879,32.52755 7.055,-0.13112 c 3.88024,-0.0721 8.78436,-0.55267 10.89804,-1.06788 z"
         style="fill:#ffffff;fill-opacity:1;stroke-width:1.02481139"
         inkscape:connector-curvature="0" />
      <path
         inkscape:connector-curvature="0"
         style="fill:#000000;fill-opacity:1"
         d="m 428.78828,555.26364 c 7.29952,-1.77927 17.7191,-7.82836 26.64418,-15.46828 16.27764,-13.93376 22.58021,-26.02262 23.66584,-45.39303 0.7617,-13.59052 -0.78152,-21.2992 -6.81931,-34.06372 -13.93793,-29.46628 -51.61535,-44.20071 -81.91307,-32.03357 -13.54936,5.44124 -30.23253,22.26473 -38.14566,38.4665 -2.30265,4.71456 -3.36022,9.27555 -3.79331,16.35954 l -0.60051,9.82248 31.72173,31.74002 31.72173,31.74004 6.88419,-0.12795 c 3.7863,-0.0704 8.57169,-0.53929 10.63419,-1.04203 z"
         id="path826" />
    </g>
  </g>
</svg>
